module login_service

go 1.21.5

require github.com/gofiber/fiber/v2 v2.52.0

require (
	github.com/jackc/pgpassfile v1.0.0 // indirect
	github.com/jackc/pgservicefile v0.0.0-20221227161230-091c0ba34f0a // indirect
	github.com/jackc/pgx/v5 v5.4.3 // indirect
	github.com/jinzhu/inflection v1.0.0 // indirect
	github.com/jinzhu/now v1.1.5 // indirect
	golang.org/x/crypto v0.14.0 // indirect
	golang.org/x/text v0.13.0 // indirect
)

require (
	github.com/andybalholm/brotli v1.0.5 // indirect
	github.com/dgrijalva/jwt-go v3.2.0+incompatible
	github.com/golang-jwt/jwt v3.2.2+incompatible
	github.com/google/uuid v1.5.0 // indirect
	github.com/joho/godotenv v1.5.1 // indirect
	github.com/klauspost/compress v1.17.0 // indirect
	github.com/mattn/go-colorable v0.1.13 // indirect
	github.com/mattn/go-isatty v0.0.20 // indirect
	github.com/mattn/go-runewidth v0.0.15 // indirect
	github.com/rivo/uniseg v0.2.0 // indirect
	github.com/valyala/bytebufferpool v1.0.0 // indirect
	github.com/valyala/fasthttp v1.51.0 // indirect
	github.com/valyala/tcplisten v1.0.0 // indirect
	golang.org/x/sys v0.15.0 // indirect
	gorm.io/driver/postgres v1.5.4
	gorm.io/gorm v1.25.5
)
